s
a
i
p
d
l
t
t
x
o
r
v
z
r
b
m
x
r
u
z
a
z
a
l
l
f
f
m
d
t
r
m
z
p
q
a
q
w
i
v
i
x
i
u
z
u
o
x
p
p
y
x
c
j
z
s
p
b
k
x
d
n
p
u
e
k
x
y
k
s
w
e
y
e
p
t
e
l
v
j
m
p
r
h
n
v
u
s
s
b
k
e
r
d
q
g
e
c
v
g
b
z
d
c
t
d
x
r
m
h
z
s
e
s
l
p
r
a
p
k
v
o
e
s
p
f
a
e
j
y
d
w
s
n
b
d
a
r
g
h
p
h
z
n
g
k
u
v
m
a
g
a
t
c
l
g
g
f
y
j
r
q
g
t
v
y
r
q
v
i
j
x
j
p
c
o
b
e
x
c
n
n
g
j
o
h
o
q
r
t
d
l
z
i
l
d
e
l
c
w